{
	"info": {
		"_postman_id": "17ece3d1-be11-4550-96ca-e17a9b4067bf",
		"name": "psp-media",
		"schema": "https://schema.getpostman.com/json/collection/v2.1.0/collection.json"
	},
	"item": [
		{
			"name": "create customer",
			"request": {
				"method": "POST",
				"header": [
					{
						"key": "Content-Type",
						"name": "Content-Type",
						"value": "application/x-www-form-urlencoded",
						"type": "text"
					}
				],
				"body": {
					"mode": "urlencoded",
					"urlencoded": [
						{
							"key": "first_name",
							"value": "Vedran",
							"type": "text"
						},
						{
							"key": "last_name",
							"value": "Kapetanovic",
							"type": "text"
						},
						{
							"key": "gender",
							"value": "f",
							"type": "text"
						},
						{
							"key": "email",
							"value": "vedran@email.com",
							"type": "text"
						},
						{
							"key": "country",
							"value": "BA",
							"type": "text"
						}
					]
				},
				"url": {
					"raw": "{{URL}}/customers",
					"host": [
						"{{URL}}"
					],
					"path": [
						"customers"
					]
				}
			},
			"response": []
		},
		{
			"name": "edit customer",
			"request": {
				"method": "PUT",
				"header": [],
				"url": {
					"raw": "{{URL}}/customers/1?first_name=Vedran",
					"host": [
						"{{URL}}"
					],
					"path": [
						"customers",
						"1"
					],
					"query": [
						{
							"key": "first_name",
							"value": "Vedran"
						}
					]
				}
			},
			"response": []
		},
		{
			"name": "deposit",
			"request": {
				"method": "POST",
				"header": [
					{
						"key": "Content-Type",
						"name": "Content-Type",
						"value": "application/x-www-form-urlencoded",
						"type": "text"
					}
				],
				"body": {
					"mode": "urlencoded",
					"urlencoded": [
						{
							"key": "customer_id",
							"value": "1",
							"type": "text"
						},
						{
							"key": "amount",
							"value": "100",
							"type": "text"
						}
					]
				},
				"url": {
					"raw": "{{URL}}/deposit",
					"host": [
						"{{URL}}"
					],
					"path": [
						"deposit"
					],
					"query": [
						{
							"key": "",
							"value": ""
						}
					]
				}
			},
			"response": []
		},
		{
			"name": "withdraw",
			"request": {
				"method": "POST",
				"header": [
					{
						"key": "Content-Type",
						"name": "Content-Type",
						"value": "application/x-www-form-urlencoded",
						"type": "text"
					}
				],
				"body": {
					"mode": "urlencoded",
					"urlencoded": [
						{
							"key": "customer_id",
							"value": "1",
							"type": "text"
						},
						{
							"key": "amount",
							"value": "100",
							"type": "text"
						}
					]
				},
				"url": {
					"raw": "{{URL}}/withdraw",
					"host": [
						"{{URL}}"
					],
					"path": [
						"withdraw"
					]
				}
			},
			"response": []
		},
		{
			"name": "report",
			"protocolProfileBehavior": {
				"disableBodyPruning": true
			},
			"request": {
				"method": "GET",
				"header": [
					{
						"key": "Content-Type",
						"name": "Content-Type",
						"value": "application/x-www-form-urlencoded",
						"type": "text"
					}
				],
				"body": {
					"mode": "urlencoded",
					"urlencoded": [
						{
							"key": "days",
							"value": "7",
							"type": "text"
						}
					]
				},
				"url": {
					"raw": "{{URL}}/report",
					"host": [
						"{{URL}}"
					],
					"path": [
						"report"
					]
				}
			},
			"response": []
		}
	],
	"variable": [
		{
			"id": "bd0f5b15-da5f-4158-8a2a-ccae2f178d65",
			"key": "URL",
			"value": "http://psp-media.localhost/",
			"type": "string"
		}
	],
	"protocolProfileBehavior": {}
}